Week 1 - Getting Situated in R and tidyverse
…
3. select()

In our bfi data, most of these have been pre-removed, so instead, we’ll imagine we don’t want to use any indicators of Agreeableness (A1-A5) and that we aren’t interested in gender.

With select(), there are few ways choose variables. We can bare quote name the ones we want to keep, bare quote names we want to remove, or use any of a number of select() helper functions.

3. select():

A. Bare quote columns we want to keep:

bfi %>%
  select(C1, C2, C3, C4, C5) %>%
  print(n = 6)

# A tibble: 2,800 × 5
     C1    C2    C3    C4    C5
  <int> <int> <int> <int> <int>
1     2     3     3     4     4
2     5     4     4     3     4
3     4     5     4     2     5
4     4     4     3     5     5
5     4     4     5     3     2
6     6     6     6     1     3
# … with 2,794 more rows

bfi %>%
  select(C1:C5) %>%
  print(n = 6)

# A tibble: 2,800 × 5
     C1    C2    C3    C4    C5
  <int> <int> <int> <int> <int>
1     2     3     3     4     4
2     5     4     4     3     4
3     4     5     4     2     5
4     4     4     3     5     5
5     4     4     5     3     2
6     6     6     6     1     3
# … with 2,794 more rows

3. select():

B. Bare quote columns we don’t want to keep:

bfi %>% 
  select(-(A1:A5), -gender) %>% # Note the `()` around the columns
  print(n = 6)

# A tibble: 2,800 × 22
     C1    C2    C3    C4    C5    E1    E2    E3    E4    E5    N1    N2    N3
  <int> <int> <int> <int> <int> <int> <int> <int> <int> <int> <int> <int> <int>
1     2     3     3     4     4     3     3     3     4     4     3     4     2
2     5     4     4     3     4     1     1     6     4     3     3     3     3
3     4     5     4     2     5     2     4     4     4     5     4     5     4
4     4     4     3     5     5     5     3     4     4     4     2     5     2
5     4     4     5     3     2     2     2     5     4     5     2     3     4
6     6     6     6     1     3     2     1     6     5     6     3     5     2
# … with 2,794 more rows, and 9 more variables: N4 <int>, N5 <int>, O1 <int>,
#   O2 <int>, O3 <int>, O4 <int>, O5 <int>, education <chr>, age <int>
…
contains()

matches()

num_range()

one_of()

all_of()

bfi %>%
  select(starts_with("C"))

# A tibble: 2,800 × 5
      C1    C2    C3    C4    C5
   <int> <int> <int> <int> <int>
 1     2     3     3     4     4
 2     5     4     4     3     4
 3     4     5     4     2     5
 4     4     4     3     5     5
 5     4     4     5     3     2
 6     6     6     6     1     3
 7     5     4     4     2     3
 8     3     2     4     2     4
 9     6     6     3     4     5
10     6     5     6     2     1
# … with 2,790 more rows
…
Sometimes, either in order to get a better sense of our data or in order to well, order our data, we want to sort it

Although there is a base R sort() function, the arrange() function is tidyverse version that plays nicely with other tidyverse functions.

4. arrange()

So in our previous examples, we could also arrange() our data by age or education, rather than simply filtering. (Or as we’ll see later, we can do both!)

# sort by age
bfi %>% 
  select(gender:age) %>%
  arrange(age) %>% 
  print(n = 6)

# A tibble: 2,800 × 3
  gender education       age
   <int> <chr>         <int>
1      1 Higher Degree     3
2      2 <NA>              9
3      2 Some College     11
4      2 <NA>             11
5      2 <NA>             11
6      2 <NA>             12
# … with 2,794 more rows

# sort by education
bfi %>%
  select(gender:age) %>%
  arrange(education) %>%
  print(n = 6)

# A tibble: 2,800 × 3
  gender education   age
   <int> <chr>     <int>
1      1 Below HS     19
2      1 Below HS     21
3      1 Below HS     17
4      1 Below HS     18
5      1 Below HS     18
6      2 Below HS     18
# … with 2,794 more rows

4. arrange()

We can also arrange by multiple columns, like if we wanted to sort by gender then education:

bfi %>%
  select(gender:age) %>%
  arrange(gender, education) %>% 
  print(n = 6)

# A tibble: 2,800 × 3
  gender education   age
   <int> <chr>     <int>
1      1 Below HS     19
2      1 Below HS     21
3      1 Below HS     17
4      1 Below HS     18
5      1 Below HS     18
6      1 Below HS     32
# … with 2,794 more rows
…
The group_by() function is the “split” of the method

It basically implicitly breaks the data set into chunks by whatever bare quoted column(s)/variable(s) are supplied as arguments.

5. group_by()

So imagine that we wanted to group_by() education levels to get average ages at each level

bfi %>%
  select(starts_with("C"), age, gender, education) %>%
  group_by(education) %>%
  print(n = 6)

# A tibble: 2,800 × 8
# Groups:   education [6]
     C1    C2    C3    C4    C5   age gender education   
  <int> <int> <int> <int> <int> <int>  <int> <chr>       
1     2     3     3     4     4    16      1 <NA>        
2     5     4     4     3     4    18      2 <NA>        
3     4     5     4     2     5    17      2 <NA>        
4     4     4     3     5     5    17      2 <NA>        
5     4     4     5     3     2    17      1 <NA>        
6     6     6     6     1     3    21      2 Some College
# … with 2,794 more rows

5. group_by()

Hadley’s first law of data cleaning: “What is split, must be combined”

This is super easy with the ungroup() function:

bfi %>%
  select(starts_with("C"), age, gender, education) %>%
  group_by(education) %>%
  ungroup() %>%
  print(n = 6)

# A tibble: 2,800 × 8
     C1    C2    C3    C4    C5   age gender education   
  <int> <int> <int> <int> <int> <int>  <int> <chr>       
1     2     3     3     4     4    16      1 <NA>        
2     5     4     4     3     4    18      2 <NA>        
3     4     5     4     2     5    17      2 <NA>        
4     4     4     3     5     5    17      2 <NA>        
5     4     4     5     3     2    17      1 <NA>        
6     6     6     6     1     3    21      2 Some College
# … with 2,794 more rows

5. group_by()

Multiple group_by() calls overwrites previous calls:

bfi %>%
  select(starts_with("C"), age, gender, education) %>%
  group_by(education) %>%
  group_by(gender, age) %>%
  print(n = 6)

# A tibble: 2,800 × 8
# Groups:   gender, age [115]
     C1    C2    C3    C4    C5   age gender education   
  <int> <int> <int> <int> <int> <int>  <int> <chr>       
1     2     3     3     4     4    16      1 <NA>        
2     5     4     4     3     4    18      2 <NA>        
3     4     5     4     2     5    17      2 <NA>        
4     4     4     3     5     5    17      2 <NA>        
5     4     4     5     3     2    17      1 <NA>        
6     6     6     6     1     3    21      2 Some College
# … with 2,794 more rows
…
You are directly mutating the existing data frame, either modifying existing columns or creating new ones

6. mutate()

To demonstrate, let’s add a column that indicated average age levels within each age group

bfi %>%
  select(starts_with("C"), age, gender, education) %>%
  arrange(education) %>%
  group_by(education) %>% 
  mutate(age_by_edu = mean(age, na.rm = T)) %>%
  print(n = 6)

# A tibble: 2,800 × 9
# Groups:   education [6]
     C1    C2    C3    C4    C5   age gender education age_by_edu
  <int> <int> <int> <int> <int> <int>  <int> <chr>          <dbl>
1     6     6     3     4     5    19      1 Below HS        25.1
2     4     3     5     3     2    21      1 Below HS        25.1
3     5     5     5     2     2    17      1 Below HS        25.1
4     5     5     4     1     1    18      1 Below HS        25.1
5     4     5     4     3     3    18      1 Below HS        25.1
6     3     2     3     4     6    18      2 Below HS        25.1
# … with 2,794 more rows

6. mutate()

mutate() is also super useful even when you aren’t grouping

We can create a new category

bfi %>%
  select(starts_with("C"), age, gender, education) %>%
  mutate(gender_cat = plyr::mapvalues(gender, c(1,2), c("Male", "Female")))

# A tibble: 2,800 × 9
      C1    C2    C3    C4    C5   age gender education    gender_cat
   <int> <int> <int> <int> <int> <int>  <int> <chr>        <chr>     
 1     2     3     3     4     4    16      1 <NA>         Male      
 2     5     4     4     3     4    18      2 <NA>         Female    
 3     4     5     4     2     5    17      2 <NA>         Female    
 4     4     4     3     5     5    17      2 <NA>         Female    
 5     4     4     5     3     2    17      1 <NA>         Male      
 6     6     6     6     1     3    21      2 Some College Female    
 7     5     4     4     2     3    18      1 <NA>         Male      
 8     3     2     4     2     4    19      1 HS           Male      
 9     6     6     3     4     5    19      1 Below HS     Male      
10     6     5     6     2     1    17      2 <NA>         Female    
# … with 2,790 more rows

6. mutate()

mutate() is also super useful even when you aren’t grouping

We could also just overwrite it:

bfi %>%
  select(starts_with("C"), age, gender, education) %>%
  mutate(gender = plyr::mapvalues(gender, c(1,2), c("Male", "Female")))

# A tibble: 2,800 × 8
      C1    C2    C3    C4    C5   age gender education   
   <int> <int> <int> <int> <int> <int> <chr>  <chr>       
 1     2     3     3     4     4    16 Male   <NA>        
 2     5     4     4     3     4    18 Female <NA>        
 3     4     5     4     2     5    17 Female <NA>        
 4     4     4     3     5     5    17 Female <NA>        
 5     4     4     5     3     2    17 Male   <NA>        
 6     6     6     6     1     3    21 Female Some College
 7     5     4     4     2     3    18 Male   <NA>        
 8     3     2     4     2     4    19 Male   HS          
 9     6     6     3     4     5    19 Male   Below HS    
10     6     5     6     2     1    17 Female <NA>        
# … with 2,790 more rows
…
1. pivot_longer(): Basic Application

Let’s start with an easy one – one key, one value:

bfi %>%
  rownames_to_column("SID") %>%
  pivot_longer(
    cols = A1:O5
    , names_to = "item"
    , values_to = "values"
    , values_drop_na = T
  ) %>%
  print(n = 8)

# A tibble: 69,492 × 6
  SID   gender education   age item  values
  <chr>  <int> <chr>     <int> <chr>  <int>
1 1          1 <NA>         16 A1         2
2 1          1 <NA>         16 A2         4
3 1          1 <NA>         16 A3         3
4 1          1 <NA>         16 A4         4
5 1          1 <NA>         16 A5         4
6 1          1 <NA>         16 C1         2
7 1          1 <NA>         16 C2         3
8 1          1 <NA>         16 C3         3
# … with 69,484 more rows
…
Now a harder one – two keys, one value:

bfi %>%
  rownames_to_column("SID") %>%
  pivot_longer(
    cols = A1:O5
    , names_to = c("trait", "item_num")
    , names_sep = -1
    , values_to = "values"
    , values_drop_na = T
  ) %>%
  print(n = 8)

# A tibble: 69,492 × 7
  SID   gender education   age trait item_num values
  <chr>  <int> <chr>     <int> <chr> <chr>     <int>
1 1          1 <NA>         16 A     1             2
2 1          1 <NA>         16 A     2             4
3 1          1 <NA>         16 A     3             3
4 1          1 <NA>         16 A     4             4
5 1          1 <NA>         16 A     5             4
6 1          1 <NA>         16 C     1             2
7 1          1 <NA>         16 C     2             3
8 1          1 <NA>         16 C     3             3
# … with 69,484 more rows
…
names_glue: specify multiple or custom separators of multiple keys

values_from: name of values in new long data frame (string)

values_fn: function applied to data with duplicate labels 

2. pivot_wider(): Basic Application

bfi_long %>%
  pivot_wider(
    names_from = "item"
    , values_from = "values"
  )

# A tibble: 2,800 × 29
   SID   gender education    age    A1    A2    A3    A4    A5    C1    C2    C3
   <chr>  <int> <chr>      <int> <int> <int> <int> <int> <int> <int> <int> <int>
 1 1          1 <NA>          16     2     4     3     4     4     2     3     3
 2 2          2 <NA>          18     2     4     5     2     5     5     4     4
 3 3          2 <NA>          17     5     4     5     4     4     4     5     4
 4 4          2 <NA>          17     4     4     6     5     5     4     4     3
 5 5          1 <NA>          17     2     3     3     4     5     4     4     5
 6 6          2 Some Coll…    21     6     6     5     6     5     6     6     6
 7 7          1 <NA>          18     2     5     5     3     5     5     4     4
 8 8          1 HS            19     4     3     1     5     1     3     2     4
 9 9          1 Below HS      19     4     3     6     3     3     6     6     3
10 10         2 <NA>          17     2     5     6     6     5     6     5     6
# … with 2,790 more rows, and 17 more variables: C4 <int>, C5 <int>, E1 <int>,
#   E2 <int>, E3 <int>, E4 <int>, E5 <int>, N1 <int>, N2 <int>, N3 <int>,
#   N4 <int>, N5 <int>, O1 <int>, O2 <int>, O3 <int>, O4 <int>, O5 <int>

2. pivot_wider(): More Advanced

bfi_long %>%
  pivot_wider(
    names_from = c("trait", "item_num")
    , values_from = "values"
    , names_sep = "_"
  )

# A tibble: 2,800 × 29
   SID   gender education    age   A_1   A_2   A_3   A_4   A_5   C_1   C_2   C_3
   <chr>  <int> <chr>      <int> <int> <int> <int> <int> <int> <int> <int> <int>
 1 1          1 <NA>          16     2     4     3     4     4     2     3     3
 2 2          2 <NA>          18     2     4     5     2     5     5     4     4
 3 3          2 <NA>          17     5     4     5     4     4     4     5     4
 4 4          2 <NA>          17     4     4     6     5     5     4     4     3
 5 5          1 <NA>          17     2     3     3     4     5     4     4     5
 6 6          2 Some Coll…    21     6     6     5     6     5     6     6     6
 7 7          1 <NA>          18     2     5     5     3     5     5     4     4
 8 8          1 HS            19     4     3     1     5     1     3     2     4
 9 9          1 Below HS      19     4     3     6     3     3     6     6     3
10 10         2 <NA>          17     2     5     6     6     5     6     5     6
# … with 2,790 more rows, and 17 more variables: C_4 <int>, C_5 <int>,
#   E_1 <int>, E_2 <int>, E_3 <int>, E_4 <int>, E_5 <int>, N_1 <int>,
#   N_2 <int>, N_3 <int>, N_4 <int>, N_5 <int>, O_1 <int>, O_2 <int>,
#   O_3 <int>, O_4 <int>, O_5 <int>

2. pivot_wider(): A Little More Advanced

bfi_long %>%
  select(-item_num) %>%
  pivot_wider(
    names_from = "trait"
    , values_from = "values"
    , names_sep = "_"
    , values_fn = mean
  )

# A tibble: 2,800 × 9
   SID   gender education      age     A     C     E     N     O
   <chr>  <int> <chr>        <int> <dbl> <dbl> <dbl> <dbl> <dbl>
 1 1          1 <NA>            16   3.4   3.2  3.4    2.8   3.8
 2 2          2 <NA>            18   3.6   4    3      3.8   3.2
 3 3          2 <NA>            17   4.4   4    3.8    3.6   3.6
 4 4          2 <NA>            17   4.8   4.2  4      2.8   3.6
 5 5          1 <NA>            17   3.4   3.6  3.6    3.2   3.2
 6 6          2 Some College    21   5.6   4.4  4      3     3.8
 7 7          1 <NA>            18   4     3.6  4.2    1.4   3.8
 8 8          1 HS              19   2.8   3    3.2    4.2   3.4
 9 9          1 Below HS        19   3.8   4.8  3.75   3.6   5  
10 10         2 <NA>            17   4.8   4    3.6    4.2   3.6
# … with 2,790 more rows
…
left_join()

right_join()

The _join() Functions

Let’s separate demographic and BFI data

bfi_only <- bfi %>% 
  rownames_to_column("SID") %>%
  select(SID, matches("[0-9]"))
bfi_only %>% print(n = 6)

# A tibble: 2,800 × 26
  SID      A1    A2    A3    A4    A5    C1    C2    C3    C4    C5    E1    E2
  <chr> <int> <int> <int> <int> <int> <int> <int> <int> <int> <int> <int> <int>
1 1         2     4     3     4     4     2     3     3     4     4     3     3
2 2         2     4     5     2     5     5     4     4     3     4     1     1
3 3         5     4     5     4     4     4     5     4     2     5     2     4
4 4         4     4     6     5     5     4     4     3     5     5     5     3
5 5         2     3     3     4     5     4     4     5     3     2     2     2
6 6         6     6     5     6     5     6     6     6     1     3     2     1
# … with 2,794 more rows, and 13 more variables: E3 <int>, E4 <int>, E5 <int>,
#   N1 <int>, N2 <int>, N3 <int>, N4 <int>, N5 <int>, O1 <int>, O2 <int>,
#   O3 <int>, O4 <int>, O5 <int>

bfi_dem <- bfi %>%
  rownames_to_column("SID") %>%
  select(SID, education, gender, age)
bfi_dem %>% print(n = 6)

# A tibble: 2,800 × 4
  SID   education    gender   age
  <chr> <chr>         <int> <int>
1 1     <NA>              1    16
2 2     <NA>              2    18
3 3     <NA>              2    17
4 4     <NA>              2    17
5 5     <NA>              1    17
6 6     Some College      2    21
# … with 2,794 more rows

3. full_join()

Most simply, we can put those back together keeping all observations.

bfi_only %>%
  full_join(bfi_dem) %>%
  print(n = 6)

# A tibble: 2,800 × 29
  SID      A1    A2    A3    A4    A5    C1    C2    C3    C4    C5    E1    E2
  <chr> <int> <int> <int> <int> <int> <int> <int> <int> <int> <int> <int> <int>
1 1         2     4     3     4     4     2     3     3     4     4     3     3
2 2         2     4     5     2     5     5     4     4     3     4     1     1
3 3         5     4     5     4     4     4     5     4     2     5     2     4
4 4         4     4     6     5     5     4     4     3     5     5     5     3
5 5         2     3     3     4     5     4     4     5     3     2     2     2
6 6         6     6     5     6     5     6     6     6     1     3     2     1
# … with 2,794 more rows, and 16 more variables: E3 <int>, E4 <int>, E5 <int>,
#   N1 <int>, N2 <int>, N3 <int>, N4 <int>, N5 <int>, O1 <int>, O2 <int>,
#   O3 <int>, O4 <int>, O5 <int>, education <chr>, gender <int>, age <int>

bfi %>%
  rownames_to_column("SID") %>%
  print(n = 6)

# A tibble: 2,800 × 29
  SID      A1    A2    A3    A4    A5    C1    C2    C3    C4    C5    E1    E2
  <chr> <int> <int> <int> <int> <int> <int> <int> <int> <int> <int> <int> <int>
1 1         2     4     3     4     4     2     3     3     4     4     3     3
2 2         2     4     5     2     5     5     4     4     3     4     1     1
3 3         5     4     5     4     4     4     5     4     2     5     2     4
4 4         4     4     6     5     5     4     4     3     5     5     5     3
5 5         2     3     3     4     5     4     4     5     3     2     2     2
6 6         6     6     5     6     5     6     6     6     1     3     2     1
# … with 2,794 more rows, and 16 more variables: E3 <int>, E4 <int>, E5 <int>,
#   N1 <int>, N2 <int>, N3 <int>, N4 <int>, N5 <int>, O1 <int>, O2 <int>,
#   O3 <int>, O4 <int>, O5 <int>, gender <int>, education <chr>, age <int>

4. inner_join()

We can also keep all rows present in both data frames

bfi_dem %>%
  filter(row_number() %in% 1:1700) %>%
  inner_join(
    bfi_only %>%
      filter(row_number() %in% 1200:2800)
  ) %>%
  print(n = 6)

# A tibble: 501 × 29
  SID   education   gender   age    A1    A2    A3    A4    A5    C1    C2    C3
  <chr> <chr>        <int> <int> <int> <int> <int> <int> <int> <int> <int> <int>
1 1200  Some Colle…      2    18     1     5     6     5     5     5     6     5
2 1201  College          2    29     1     5     6     5     5     2     1     4
3 1202  Higher Deg…      1    46     2     5     6     5     6     6     6     6
4 1203  Higher Deg…      1    58     5     4     4     4     5     4     4     5
5 1204  Higher Deg…      2    38     1     4     6     6     6     4     4     5
6 1205  Higher Deg…      2    27     2     3     1     1     1     4     2     2
# … with 495 more rows, and 17 more variables: C4 <int>, C5 <int>, E1 <int>,
#   E2 <int>, E3 <int>, E4 <int>, E5 <int>, N1 <int>, N2 <int>, N3 <int>,
#   N4 <int>, N5 <int>, O1 <int>, O2 <int>, O3 <int>, O4 <int>, O5 <int>
…
